{
  "info" : {
    "version" : 1,
    "author" : "xcode"
  },
  "data" : [
    {
      "idiom" : "universal",
      "filename" : "Home-Tags-BG2-V2.gif",
      "universal-type-identifier" : "com.compuserve.gif"
    }
  ]
}